^C:\USERS\JMC\NETWORKINGP3\GAMESERVER\DEBUG\BUFFER.OBJ|C:\USERS\JMC\NETWORKINGP3\GAMESERVER\DEBUG\MAIN.OBJ
/OUT:"C:\USERS\JMC\NETWORKINGP3\DEBUG\GAMESERVER.EXE" /INCREMENTAL /NOLOGO KERNEL32.LIB USER32.LIB GDI32.LIB WINSPOOL.LIB COMDLG32.LIB ADVAPI32.LIB SHELL32.LIB OLE32.LIB OLEAUT32.LIB UUID.LIB ODBC32.LIB ODBCCP32.LIB /MANIFEST /MANIFESTUAC:"level='asInvoker' uiAccess='false'" /manifest:embed /Debug /PDB:"C:\USERS\JMC\NETWORKINGP3\DEBUG\GAMESERVER.PDB" /SUBSYSTEM:CONSOLE /TLBID:1 /DYNAMICBASE /NXCOMPAT /IMPLIB:"C:\USERS\JMC\NETWORKINGP3\DEBUG\GAMESERVER.LIB" /MACHINE:X86 DEBUG\BUFFER.OBJDEBUG\MAIN.OBJ
^C:\USERS\SHARRANT\NETWORKINGP3\GAMESERVER\DEBUG\BUFFER.OBJ|C:\USERS\SHARRANT\NETWORKINGP3\GAMESERVER\DEBUG\MAIN.OBJ
/OUT:"C:\USERS\SHARRANT\NETWORKINGP3\DEBUG\GAMESERVER.EXE" /INCREMENTAL /NOLOGO KERNEL32.LIB USER32.LIB GDI32.LIB WINSPOOL.LIB COMDLG32.LIB ADVAPI32.LIB SHELL32.LIB OLE32.LIB OLEAUT32.LIB UUID.LIB ODBC32.LIB ODBCCP32.LIB /MANIFEST /MANIFESTUAC:"level='asInvoker' uiAccess='false'" /manifest:embed /Debug /PDB:"C:\USERS\SHARRANT\NETWORKINGP3\DEBUG\GAMESERVER.PDB" /SUBSYSTEM:CONSOLE /TLBID:1 /DYNAMICBASE /NXCOMPAT /IMPLIB:"C:\USERS\SHARRANT\NETWORKINGP3\DEBUG\GAMESERVER.LIB" /MACHINE:X86 DEBUG\BUFFER.OBJDEBUG\MAIN.OBJ
